{
  "deviceId": "NewRadio",
  "enable": true,
  "messageBroker": {
    "type": "RabbitMQ"
  },
  "plugin": {
    "releaseManagement": {
      "deviceId": "NewRadio",
      "logLevel": 3,
      "handler": "releaseManagementRadio",
      "username": "BG_Radio"
    },
    "configurationProvider": "com.theblackchair.spotlight.plugin.radio.consumer.RadioConsumerConfig",
    "eventHandler": [
      "resyncHandler",
      "baseHandler",
      "ack",
      "relationalSpotLightHandler",
      "watchListHandler"
    ],
    "multiEnvironment": false,
    "store": "relational"
  },
  "config": {
    "database": "spotlightCustomRadio",
    "datadictionaryAction": "update",
    "host": "localhost",
    "initialize": true,
    "integratedSecurity": false,
    "password": "lA4GMR+gqx10DwI9kBpb2Q==",
    "username": "spotlight",
    "groupDisplayName": "Radio Plugin",
    "groupName": "Radio Plugin",
    "envId": "6"
  }
}